[gd_scene load_steps=2 format=2]

[ext_resource path="res://scripts/standard_button.gd" type="Script" id=1]

[node name="standard_button" type="TextureButton"]
margin_right = 40.0
margin_bottom = 40.0
rect_min_size = Vector2( 0, 20 )
script = ExtResource( 1 )

[node name="text" type="Label" parent="."]
anchor_right = 1.0
anchor_bottom = 1.0
custom_colors/font_color_shadow = Color( 0.247059, 0.247059, 0.247059, 1 )
custom_constants/shadow_offset_x = 2
custom_constants/shadow_offset_y = 2
align = 1
valign = 1
