[gd_scene load_steps=3 format=2]

[ext_resource path="res://scripts/TerrainGenerator.cs" type="Script" id=1]
[ext_resource path="res://scripts/BlockTextures.cs" type="Script" id=2]

[node name="TerrainGenerator" type="Spatial"]
script = ExtResource( 1 )

[node name="Chunks" type="Spatial" parent="."]

[node name="BlockTextures" type="Node" parent="."]
script = ExtResource( 2 )
